[
    {
        "title": "Nokia 6.1 Plus (Black, 6GB RAM, 64GB Storage)",
        "reviews": "984",
        "questionsAnswered": "874",
        "originalPrice": "₹ 18,499.00",
        "discountedPrice": "₹ 10,999.00",
        "discount": "₹ 7,500.00 (41%)",
        "productImage": "https://images-na.ssl-images-amazon.com/images/I/61UXDdyLTxL._SY550_.jpg",
        "url": "https://www.amazon.in/Nokia-6-1-Plus-Black-Storage/dp/B07T4VRYS8/ref=sr_1_1?keywords=nokia+6.1%2B&qid=1567170815&s=gateway&sr=8-1"
    },
    {
        "title": "Nokia 6.1 Plus (Black, 6GB RAM, 64GB Storage)",
        "reviews": "984",
        "questionsAnswered": "874",
        "originalPrice": "₹ 18,499.00",
        "discountedPrice": "₹ 10,999.00",
        "discount": "₹ 7,500.00 (41%)",
        "productImage": "https://images-na.ssl-images-amazon.com/images/I/61UXDdyLTxL._SY550_.jpg",
        "url": "https://www.amazon.in/Nokia-6-1-Plus-Black-Storage/dp/B07T4VRYS8/ref=sr_1_1?keywords=nokia+6.1%2B&qid=1567170815&s=gateway&sr=8-1"
    },
    {
        "title": "Nokia 6.1 Plus (Blue, 6GB RAM, 64GB Storage)",
        "reviews": "984",
        "questionsAnswered": "874",
        "originalPrice": "₹ 20,499.00",
        "discountedPrice": "₹ 10,999.00",
        "discount": "₹ 9,500.00 (46%)",
        "productImage": "https://images-na.ssl-images-amazon.com/images/I/61UXDdyLTxL._SY550_.jpg",
        "url": "https://www.amazon.in/Nokia-6-1-Plus-Blue-Storage/dp/B07RJB997T/ref=sr_1_2?keywords=nokia+6.1%2B&qid=1567170815&s=gateway&sr=8-2"
    },
    {
        "title": "Nokia 6.1 Plus (Blue, 6GB RAM, 64GB Storage)",
        "reviews": "984",
        "questionsAnswered": "874",
        "originalPrice": "₹ 20,499.00",
        "discountedPrice": "₹ 10,999.00",
        "discount": "₹ 9,500.00 (46%)",
        "productImage": "https://images-na.ssl-images-amazon.com/images/I/61UXDdyLTxL._SY550_.jpg",
        "url": "https://www.amazon.in/Nokia-6-1-Plus-Blue-Storage/dp/B07RJB997T/ref=sr_1_2?keywords=nokia+6.1%2B&qid=1567170815&s=gateway&sr=8-2"
    }
]